"Groupe" "Rendement"
"1290" "methionine" -1.820634125
"4102" "temoin" -1.012953629
"6511" "temoin" -0.417394316
"3192" "methionine" 0.963731326
"6466" "temoin" 1.262544404
"2919" "methionine" 1.400601535
"4785" "temoin" 1.571570427
"8992" "temoin" 1.819586598
"9111" "methionine" 1.387189607
"1141" "methionine" -1.280061007
"6123" "methionine" 1.609873155
"5946" "temoin" 0.911763083
"4212" "methionine" 1.690864343
"1410" "methionine" 4.197419285
"3208" "methionine" 2.773685705
"4180" "methionine" 2.561670153
"1014" "temoin" -0.35985651
"6463" "temoin" 0.323216772
"4849" "methionine" 0.359679998
"9182" "temoin" 1.178994123
"3680" "methionine" 2.489216989
"4259" "methionine" 0.483366997
"8149" "temoin" 0.754086715
"2390" "methionine" 2.307028301
"5593" "temoin" 2.358606529
"1851" "temoin" 0.963646766
"5655" "temoin" 1.343183808
"6863" "methionine" 1.067751729
"9593" "methionine" 2.61672901
"2700" "temoin" 0.509738384
"4851" "methionine" -0.083635464
"7700" "methionine" -0.42505894
"8842" "temoin" -0.166968823
"6200" "temoin" -0.051713178
"2520" "temoin" 1.444523283
"9725" "temoin" 0.049409749
"2009" "methionine" 3.872375143
"9922" "temoin" 0.044475135
"5235" "temoin" -0.843443618
"3860" "methionine" 0.7502176
"6629" "temoin" 0.312689911
"7846" "methionine" 1.578385348
"5652" "temoin" -0.787894657
"9790" "methionine" 3.3913064
"8188" "methionine" 3.564716436
"5681" "methionine" 5.26603399
"5495" "temoin" 0.673320699
"8749" "methionine" 1.870702534
"2967" "methionine" 2.271822022
"6112" "methionine" 4.186547546
"2561" "temoin" 0.874153362
"7491" "temoin" 0.438397609
"6271" "methionine" 0.368063774
"6076" "temoin" 1.149858822
"7281" "methionine" 3.564120143
"1133" "temoin" -0.602735445
"4442" "methionine" 1.678860767
"5859" "methionine" 3.415638992
"3161" "methionine" 1.037594008
"1806" "methionine" 1.053288031
"6670" "temoin" -0.800498928
"3640" "methionine" 1.546283628
"1094" "temoin" 3.281930218
"7707" "methionine" 3.523028862
"6843" "temoin" 1.632910293
"4737" "temoin" 3.383902758
"6373" "temoin" 0.775203863
"7285" "methionine" 3.144873319
"9374" "methionine" 1.115042969
"4488" "methionine" 0.635655601
"8833" "temoin" 1.859574953
"7865" "temoin" 1.983653245
"5175" "methionine" 3.125030444
"9881" "methionine" 1.412417208
"8498" "methionine" 2.444605653
"1329" "temoin" 0.236467101
"2533" "temoin" 2.323641458
"1661" "methionine" 1.013106643
"3006" "methionine" 2.649371644
"4907" "temoin" 1.466240894
"4373" "methionine" 1.778038913
"7822" "temoin" 1.817864101
"2893" "temoin" 2.086667614
"7518" "temoin" 0.070409422
"8466" "temoin" 1.876153072
"2798" "methionine" 3.064044323
"4117" "methionine" 0.319313871
"4307" "temoin" 0.697472852
"1083" "methionine" 2.393534027
"7664" "temoin" 0.60915177
"5861" "temoin" 2.137948402
"7785" "methionine" 0.079061515
"4872" "methionine" 2.197285102
"6385" "temoin" 0.39903627
"4027" "temoin" 0.745063255
"5376" "methionine" 2.409769239
"1234" "temoin" 1.039091276
"2319" "temoin" 1.860429358
"1777" "temoin" 1.199658095
"5622" "methionine" 1.598801072
"3916" "methionine" 1.673208412
"2621" "temoin" 0.997552081
"1119" "temoin" 0.508321179
"3986" "methionine" 1.341746993
"4619" "methionine" 2.916251716
"9464" "methionine" 4.551271904
"3618" "temoin" 1.636567188
"6503" "temoin" 1.162859303
"7754" "temoin" 0.457732759
"8718" "methionine" 2.044003437
"2762" "temoin" 2.451761287
"2607" "methionine" 2.625700968
"9519" "methionine" 2.634011426
"2185" "temoin" 0.719342105
"4112" "methionine" 1.223815109
"5923" "temoin" 1.876823452
"9906" "methionine" 3.758783681
"6190" "temoin" 1.292834595
"2067" "methionine" 2.638636896
"9164" "temoin" 0.39622091
"6554" "temoin" 1.5544629
