	100m	Longueur	Poids	Hauteur	400m	110m haies	Disque	Perche	Javelot	1500m	Classement	Nb pts	Epreuve
Sebrle	10.85	7.84	16.36	2.12	48.36	14.05	48.72	5.00	70.52	280.01	1	8893	JO
Clay	10.44	7.96	15.23	2.06	49.19	14.13	50.11	4.90	69.71	282	2	8820	JO
Karpov	10.5	7.81	15.93	2.09	46.81	13.97	51.65	4.60	55.54	278.11	3	8725	JO
Macey	10.89	7.47	15.73	2.15	48.97	14.56	48.34	4.40	58.46	265.42	4	8414	JO
Warners	10.62	7.74	14.48	1.97	47.97	14.01	43.73	4.90	55.39	278.05	5	8343	JO
Zsivoczky	10.91	7.14	15.31	2.12	49.4	14.95	45.62	4.70	63.45	269.54	6	8287	JO
Hernu	10.97	7.19	14.65	2.03	48.73	14.25	44.72	4.80	57.76	264.35	7	8237	JO
Nool	10.8	7.53	14.26	1.88	48.81	14.8	42.05	5.40	61.33	276.33	8	8235	JO
Bernard	10.69	7.48	14.8	2.12	49.13	14.17	44.75	4.40	55.27	276.31	9	8225	JO
Schwarzl	10.98	7.49	14.01	1.94	49.76	14.25	42.43	5.10	56.32	273.56	10	8102	JO
Pogorelov	10.95	7.31	15.1	2.06	50.79	14.21	44.6	5.00	53.45	287.63	11	8084	JO
Schoenbeck	10.9	7.3	14.77	1.88	50.3	14.34	44.41	5.00	60.89	278.82	12	8077	JO
Barras	11.14	6.99	14.91	1.94	49.41	14.37	44.83	4.60	64.55	267.09	13	8067	JO
Smith	10.85	6.81	15.24	1.91	49.27	14.01	49.02	4.20	61.52	272.74	14	8023	JO
Averyanov	10.55	7.34	14.44	1.94	49.72	14.39	39.88	4.80	54.51	271.02	15	8021	JO
Ojaniemi	10.68	7.5	14.97	1.94	49.12	15.01	40.35	4.60	59.26	275.71	16	8006	JO
Smirnov	10.89	7.07	13.88	1.94	49.11	14.77	42.47	4.70	60.88	263.31	17	7993	JO
Qi	11.06	7.34	13.55	1.97	49.65	14.78	45.13	4.50	60.79	272.63	18	7934	JO
Drews	10.87	7.38	13.07	1.88	48.51	14.01	40.11	5.00	51.53	274.21	19	7926	JO
Parkhomenko	11.14	6.61	15.69	2.03	51.04	14.88	41.9	4.80	65.82	277.94	20	7918	JO
Terek	10.92	6.94	15.15	1.94	49.56	15.12	45.62	5.30	50.62	290.36	21	7893	JO
Gomez	11.08	7.26	14.57	1.85	48.61	14.41	40.95	4.40	60.71	269.7	22	7865	JO
Turi	11.08	6.91	13.62	2.03	51.67	14.26	39.83	4.80	59.34	290.01	23	7708	JO
Lorenzo	11.1	7.03	13.22	1.85	49.34	15.38	40.22	4.50	58.36	263.08	24	7592	JO
Karlivans	11.33	7.26	13.3	1.97	50.54	14.98	43.34	4.50	52.92	278.67	25	7583	JO
Korkizoglou	10.86	7.07	14.81	1.94	51.16	14.96	46.07	4.70	53.05	317	26	7573	JO
Uldal	11.23	6.99	13.53	1.85	50.95	15.09	43.01	4.50	60.00	281.7	27	7495	JO
Casarsa	11.36	6.68	14.92	1.94	53.2	15.39	48.66	4.40	58.62	296.12	28	7404	JO
SEBRLE	11.04	7.58	14.83	2.07	49.81	14.69	43.75	5.02	63.19	291.7	1	8217	Decastar
CLAY	10.76	7.4	14.26	1.86	49.37	14.05	50.72	4.92	60.15	301.5	2	8122	Decastar
KARPOV	11.02	7.3	14.77	2.04	48.37	14.09	48.95	4.92	50.31	300.2	3	8099	Decastar
BERNARD	11.02	7.23	14.25	1.92	48.93	14.99	40.87	5.32	62.77	280.1	4	8067	Decastar
YURKOV	11.34	7.09	15.19	2.1	50.42	15.31	46.26	4.72	63.44	276.4	5	8036	Decastar
WARNERS	11.11	7.6	14.31	1.98	48.68	14.23	41.1	4.92	51.77	278.1	6	8030	Decastar
ZSIVOCZKY	11.13	7.3	13.48	2.01	48.62	14.17	45.67	4.42	55.37	268	7	8004	Decastar
McMULLEN	10.83	7.31	13.76	2.13	49.91	14.38	44.41	4.42	56.37	285.1	8	7995	Decastar
MARTINEAU	11.64	6.81	14.57	1.95	50.14	14.93	47.6	4.92	52.33	262.1	9	7802	Decastar
HERNU	11.37	7.56	14.41	1.86	51.1	15.06	44.99	4.82	57.19	285.1	10	7733	Decastar
BARRAS	11.33	6.97	14.09	1.95	49.48	14.48	42.1	4.72	55.4	282	11	7708	Decastar
NOOL	11.33	7.27	12.68	1.98	49.2	15.29	37.92	4.62	57.44	266.6	12	7651	Decastar
BOURGUIGNON	11.36	6.8	13.46	1.86	51.16	15.67	40.49	5.02	54.68	291.7	13	7313	Decastar
